Assignment of missingness types — assign_missingness • protti
…
set.seed(123) # Makes example reproducible

# Create example data
data <- create_synthetic_data(
  n_proteins = 10,
  frac_change = 0.5,
  n_replicates = 4,
  n_conditions = 2,
  method = "effect_random",
  additional_metadata = FALSE
)

head(data, n = 24)
#> # A tibble: 24 × 8
#>    protein   peptide     condition sample peptide_intensi… change change_peptide
#>    <chr>     <chr>       <chr>     <chr>             <dbl> <lgl>  <lgl>         
#>  1 protein_1 peptide_1_1 conditio… sampl…             16.8 TRUE   TRUE          
#>  2 protein_1 peptide_1_1 conditio… sampl…             17.0 TRUE   TRUE          
#>  3 protein_1 peptide_1_1 conditio… sampl…             17.0 TRUE   TRUE          
#>  4 protein_1 peptide_1_1 conditio… sampl…             17.0 TRUE   TRUE          
#>  5 protein_1 peptide_1_1 conditio… sampl…             15.8 TRUE   TRUE          
#>  6 protein_1 peptide_1_1 conditio… sampl…             15.9 TRUE   TRUE          
#>  7 protein_1 peptide_1_1 conditio… sampl…             16.1 TRUE   TRUE          
#>  8 protein_1 peptide_1_1 conditio… sampl…             15.9 TRUE   TRUE          
#>  9 protein_1 peptide_1_2 conditio… sampl…             12.6 TRUE   FALSE         
#> 10 protein_1 peptide_1_2 conditio… sampl…             12.7 TRUE   FALSE         
#> # … with 14 more rows, and 1 more variable: peptide_intensity_missing <dbl>
…
head(data_missing, n = 24)
#> # A tibble: 24 × 7
#>    protein   sample   condition  peptide peptide_intensi… comparison missingness
#>    <chr>     <chr>    <chr>      <chr>              <dbl> <chr>      <chr>      
#>  1 protein_1 sample_1 condition… peptid…             16.8 condition… complete   
#>  2 protein_1 sample_2 condition… peptid…             17.0 condition… complete   
#>  3 protein_1 sample_3 condition… peptid…             17.0 condition… complete   
#>  4 protein_1 sample_4 condition… peptid…             17.0 condition… complete   
#>  5 protein_1 sample_5 condition… peptid…             15.8 condition… complete   
#>  6 protein_1 sample_6 condition… peptid…             15.9 condition… complete   
#>  7 protein_1 sample_7 condition… peptid…             16.1 condition… complete   
#>  8 protein_1 sample_8 condition… peptid…             15.9 condition… complete   
#>  9 protein_1 sample_1 condition… peptid…             NA   condition… NA         
#> 10 protein_1 sample_2 condition… peptid…             NA   condition… NA         
#> # … with 14 more rows
…
