Calculate scores for each amino acid position in a protein sequence — calculate_aa_scores • protti
…
  pg_protein_accessions = c(rep("protein_1", 10)),
  diff = c(2, -3, 1, 2, 3, -3, 5, 1, -0.5, 2),
  adj_pval = c(0.001, 0.01, 0.2, 0.05, 0.002, 0.5, 0.4, 0.7, 0.001, 0.02),
  start = c(1, 3, 5, 10, 15, 25, 28, 30, 41, 51),
  end = c(6, 8, 10, 16, 23, 35, 35, 35, 48, 55)
)
calculate_aa_scores(
  data,
  protein = pg_protein_accessions,
  diff = diff,
  adj_pval = adj_pval,
  start_position = start,
  end_position = end
)
#> # A tibble: 47 × 3
#> # Groups:   pg_protein_accessions, residue [47]
#>    pg_protein_accessions residue amino_acid_score
#>    <chr>                   <int>            <dbl>
#>  1 protein_1                   1            6    
#>  2 protein_1                   2            6    
#>  3 protein_1                   3            6    
#>  4 protein_1                   4            6    
#>  5 protein_1                   5            4.23 
#>  6 protein_1                   6            4.23 
#>  7 protein_1                   7            3.35 
#>  8 protein_1                   8            3.35 
#>  9 protein_1                   9            0.699
#> 10 protein_1                  10            1.65 
#> # … with 37 more rows
…
