Creates a contact map of all atoms from a structure file — create_structure_contact_map • protti
…
contact_maps
#> $`6NPF`
#> # A tibble: 330 × 14
#>    label_comp_id_var1 label_seq_id_var1 label_asym_id_var1 auth_comp_id_var1
#>    <chr>                          <dbl> <chr>              <chr>            
#>  1 SER                               19 A                  SER              
#>  2 SER                               19 A                  SER              
#>  3 SER                               19 A                  SER              
#>  4 SER                               19 A                  SER              
#>  5 SER                               19 A                  SER              
#>  6 SER                               19 A                  SER              
#>  7 SER                               19 A                  SER              
#>  8 SER                               19 A                  SER              
#>  9 SER                               19 A                  SER              
#> 10 SER                               19 A                  SER              
#> # … with 320 more rows, and 10 more variables: auth_seq_id_var1 <chr>,
#> #   auth_asym_id_var1 <chr>, label_comp_id_var2 <chr>, label_seq_id_var2 <dbl>,
#> #   label_asym_id_var2 <chr>, auth_comp_id_var2 <chr>, auth_seq_id_var2 <chr>,
#> #   auth_asym_id_var2 <chr>, id <chr>, min_distance_residue <dbl>
#> 
#> $`1C14`
#> # A tibble: 18,553 × 14
#>    label_comp_id_var1 label_seq_id_var1 label_asym_id_var1 auth_comp_id_var1
#>    <chr>                          <dbl> <chr>              <chr>            
#>  1 GLY                                2 A                  GLY              
#>  2 GLY                                2 A                  GLY              
#>  3 GLY                                2 A                  GLY              
#>  4 GLY                                2 A                  GLY              
#>  5 GLY                                2 A                  GLY              
#>  6 GLY                                2 A                  GLY              
#>  7 GLY                                2 A                  GLY              
#>  8 GLY                                2 A                  GLY              
#>  9 GLY                                2 A                  GLY              
#> 10 GLY                                2 A                  GLY              
#> # … with 18,543 more rows, and 10 more variables: auth_seq_id_var1 <chr>,
#> #   auth_asym_id_var1 <chr>, label_comp_id_var2 <chr>, label_seq_id_var2 <dbl>,
#> #   label_asym_id_var2 <chr>, auth_comp_id_var2 <chr>, auth_seq_id_var2 <chr>,
#> #   auth_asym_id_var2 <chr>, id <chr>, min_distance_residue <dbl>
#> 
#> $`3NIR`
#> # A tibble: 8,062 × 14
#>    label_comp_id_var1 label_seq_id_var1 label_asym_id_var1 auth_comp_id_var1
#>    <chr>                          <dbl> <chr>              <chr>            
#>  1 THR                                1 A                  THR              
#>  2 THR                                1 A                  THR              
#>  3 THR                                1 A                  THR              
#>  4 THR                                1 A                  THR              
#>  5 THR                                1 A                  THR              
#>  6 THR                                1 A                  THR              
#>  7 THR                                1 A                  THR              
#>  8 THR                                1 A                  THR              
#>  9 THR                                1 A                  THR              
#> 10 THR                                1 A                  THR              
#> # … with 8,052 more rows, and 10 more variables: auth_seq_id_var1 <chr>,
#> #   auth_asym_id_var1 <chr>, label_comp_id_var2 <chr>, label_seq_id_var2 <dbl>,
#> #   label_asym_id_var2 <chr>, auth_comp_id_var2 <chr>, auth_seq_id_var2 <chr>,
#> #   auth_asym_id_var2 <chr>, id <chr>, min_distance_residue <dbl>
…
