Creates a mass spectrometer queue for Xcalibur — create_queue • protti
…
  exclude_combinations = list(list(
    treatment_type_1 = c("H2O"),
    treatment_type_2 = c("Zeba", "unfiltered"),
    treatment_dose_1 = c(10, 30)
  )),
  inj_vol = c(2),
  data_path = "D:\\2007_Data",
  method_path = "C:\\Xcalibur\\methods\\DIA_120min",
  position_row = c("A", "B", "C", "D", "E", "F"),
  position_column = 8,
  blank_every_n = 4,
  blank_position = "1-V1",
  blank_method_path = "C:\\Xcalibur\\methods\\blank"
)
#> # A tibble: 80 × 21
#>    `Sample Type` `File Name`               `Sample ID` Path  `Instrument Method`
#>    <chr>         <chr>                           <dbl> <chr> <chr>              
#>  1 QC            200722_EX1_jquast_blank_1           1 "D:\… "C:\\Xcalibur\\met…
#>  2 Unknown       200722_EX1_jquast_DIA_JP…           1 "D:\… "C:\\Xcalibur\\met…
#>  3 Unknown       200722_EX1_jquast_DIA_JP…           1 "D:\… "C:\\Xcalibur\\met…
#>  4 Unknown       200722_EX1_jquast_DIA_JP…           1 "D:\… "C:\\Xcalibur\\met…
#>  5 Unknown       200722_EX1_jquast_DIA_JP…           1 "D:\… "C:\\Xcalibur\\met…
#>  6 QC            200722_EX1_jquast_blank_2           1 "D:\… "C:\\Xcalibur\\met…
#>  7 Unknown       200722_EX1_jquast_DIA_JP…           1 "D:\… "C:\\Xcalibur\\met…
#>  8 Unknown       200722_EX1_jquast_DIA_JP…           1 "D:\… "C:\\Xcalibur\\met…
#>  9 Unknown       200722_EX1_jquast_DIA_JP…           1 "D:\… "C:\\Xcalibur\\met…
#> 10 Unknown       200722_EX1_jquast_DIA_JP…           1 "D:\… "C:\\Xcalibur\\met…
#> # ℹ 70 more rows
#> # ℹ 16 more variables: `Process Method` <lgl>, `Calibration File` <lgl>,
#> #   Position <chr>, `Inj Vol` <dbl>, Level <lgl>, `Sample Wt` <dbl>,
#> #   `Sample Vol` <dbl>, `ISTD Amt` <dbl>, `Dil Factor` <dbl>, `L1 Study` <lgl>,
#> #   `L2 Client` <lgl>, `L3 Laboratory` <lgl>, `L4 Company` <lgl>,
#> #   `L5 Phone` <lgl>, Comment <lgl>, `Sample Name` <chr>
…
