Creates a synthetic limited proteolysis proteomics dataset — create_synthetic_data • protti
…
    Value

    A data frame that contains complete peptide intensities and peptide intensities with
values that were created based on a probabilistic dropout curve.

    Examples

create_synthetic_data(
  n_proteins = 10,
  frac_change = 0.1,
  n_replicates = 3,
  n_conditions = 2
)
#> # A tibble: 1,332 × 14
#>    protein   peptide    condition sample peptide_intensity change change_peptide
#>    <chr>     <chr>      <chr>     <chr>              <dbl> <lgl>  <lgl>         
#>  1 protein_1 peptide_1… conditio… sampl…              13.9 TRUE   TRUE          
#>  2 protein_1 peptide_1… conditio… sampl…              13.9 TRUE   TRUE          
#>  3 protein_1 peptide_1… conditio… sampl…              14.0 TRUE   TRUE          
#>  4 protein_1 peptide_1… conditio… sampl…              13.1 TRUE   TRUE          
#>  5 protein_1 peptide_1… conditio… sampl…              13.3 TRUE   TRUE          
#>  6 protein_1 peptide_1… conditio… sampl…              13.4 TRUE   TRUE          
#>  7 protein_1 peptide_1… conditio… sampl…              18.3 TRUE   TRUE          
#>  8 protein_1 peptide_1… conditio… sampl…              18.1 TRUE   TRUE          
#>  9 protein_1 peptide_1… conditio… sampl…              18.1 TRUE   TRUE          
#> 10 protein_1 peptide_1… conditio… sampl…              18.1 TRUE   TRUE          
#> # ℹ 1,322 more rows
#> # ℹ 7 more variables: peptide_intensity_missing <dbl>, coverage <dbl>,
#> #   n_missed_cleavage <int>, charge <dbl>, pep_type <chr>, peak_width <dbl>,
#> #   retention_time <dbl>
…
