Extract metal-bind protein information from UniProt — extract_metal_binders • protti
…
# Extract metal binding information
metal_info <- extract_metal_binders(
  data = data,
  protein_id = id,
  feature_metal_binding = feature_metal_binding,
  chebi_cofactor = chebi_cofactor,
  chebi_catalytic_activity = chebi_catalytic_activity
)

metal_info
#> # A tibble: 54 × 9
#> # Groups:   id [3]
#>    id     source            ids   metal_position metal_type sub_ids main_id_name
#>    <chr>  <chr>             <chr>          <dbl> <chr>      <chr>   <chr>       
#>  1 P22276 feature_metal_bi… 63056           1095 Zinc       63056   zinc cation 
#>  2 P22276 feature_metal_bi… 63056           1095 Zinc       29105   zinc cation 
#>  3 P22276 feature_metal_bi… 63056           1095 Zinc       37255   zinc cation 
#>  4 P22276 feature_metal_bi… 63056           1098 Zinc       63056   zinc cation 
#>  5 P22276 feature_metal_bi… 63056           1098 Zinc       29105   zinc cation 
#>  6 P22276 feature_metal_bi… 63056           1098 Zinc       37255   zinc cation 
#>  7 P22276 feature_metal_bi… 63056           1107 Zinc       63056   zinc cation 
#>  8 P22276 feature_metal_bi… 63056           1107 Zinc       29105   zinc cation 
#>  9 P22276 feature_metal_bi… 63056           1107 Zinc       37255   zinc cation 
#> 10 P22276 feature_metal_bi… 63056           1110 Zinc       63056   zinc cation 
#> # … with 44 more rows, and 2 more variables: multi_evidence <lgl>,
#> #   sub_id_name <chr>
…
