Imputation of Missing Values Using Random Forest Imputation — impute_randomforest • protti
…
set.seed(123) # Makes example reproducible

# Create example data
data <- create_synthetic_data(
  n_proteins = 10,
  frac_change = 0.5,
  n_replicates = 4,
  n_conditions = 2,
  method = "effect_random",
  additional_metadata = FALSE
)

head(data, n = 24)
#> # A tibble: 24 × 8
#>    protein   peptide    condition sample peptide_intensity change change_peptide
#>    <chr>     <chr>      <chr>     <chr>              <dbl> <lgl>  <lgl>         
#>  1 protein_1 peptide_1… conditio… sampl…              16.8 TRUE   TRUE          
#>  2 protein_1 peptide_1… conditio… sampl…              17.0 TRUE   TRUE          
#>  3 protein_1 peptide_1… conditio… sampl…              17.0 TRUE   TRUE          
#>  4 protein_1 peptide_1… conditio… sampl…              17.0 TRUE   TRUE          
#>  5 protein_1 peptide_1… conditio… sampl…              15.8 TRUE   TRUE          
#>  6 protein_1 peptide_1… conditio… sampl…              15.9 TRUE   TRUE          
#>  7 protein_1 peptide_1… conditio… sampl…              16.1 TRUE   TRUE          
#>  8 protein_1 peptide_1… conditio… sampl…              15.9 TRUE   TRUE          
#>  9 protein_1 peptide_1… conditio… sampl…              12.6 TRUE   FALSE         
#> 10 protein_1 peptide_1… conditio… sampl…              12.7 TRUE   FALSE         
#> # ℹ 14 more rows
#> # ℹ 1 more variable: peptide_intensity_missing <dbl>

# Perform imputation
data_imputed <- impute_randomforest(
  data,
  sample = sample,
  grouping = peptide,
  intensity_log2 = peptide_intensity_missing
)

head(data_imputed, n = 24)
#> # A tibble: 24 × 5
#>    sample   peptide      imputed_intensity peptide_intensity_missing imputed
#>    <chr>    <chr>                    <dbl>                     <dbl> <lgl>  
#>  1 sample_1 peptide_1_1               16.8                      16.8 FALSE  
#>  2 sample_1 peptide_1_2               12.7                      NA   TRUE   
#>  3 sample_1 peptide_1_3               15.9                      15.9 FALSE  
#>  4 sample_1 peptide_1_4               17.1                      17.1 FALSE  
#>  5 sample_1 peptide_1_5               16.6                      16.6 FALSE  
#>  6 sample_1 peptide_1_6               16.2                      16.2 FALSE  
#>  7 sample_1 peptide_1_7               14.7                      14.7 FALSE  
#>  8 sample_1 peptide_1_8               14.3                      NA   TRUE   
#>  9 sample_1 peptide_1_9               13.8                      13.8 FALSE  
#> 10 sample_1 peptide_1_10              16.3                      16.3 FALSE  
#> # ℹ 14 more rows
…
