Imputation of missing values — impute • protti
…
set.seed(123) # Makes example reproducible

# Create example data
data <- create_synthetic_data(
  n_proteins = 10,
  frac_change = 0.5,
  n_replicates = 4,
  n_conditions = 2,
  method = "effect_random",
  additional_metadata = FALSE
)

head(data, n = 24)

#> # A tibble: 24 × 8
#>    protein   peptide     condition sample peptide_intensi… change change_peptide
#>    <chr>     <chr>       <chr>     <chr>             <dbl> <lgl>  <lgl>         
#>  1 protein_1 peptide_1_1 conditio… sampl…             16.8 TRUE   TRUE          
#>  2 protein_1 peptide_1_1 conditio… sampl…             17.0 TRUE   TRUE          
#>  3 protein_1 peptide_1_1 conditio… sampl…             17.0 TRUE   TRUE          
#>  4 protein_1 peptide_1_1 conditio… sampl…             17.0 TRUE   TRUE          
#>  5 protein_1 peptide_1_1 conditio… sampl…             15.8 TRUE   TRUE          
#>  6 protein_1 peptide_1_1 conditio… sampl…             15.9 TRUE   TRUE          
#>  7 protein_1 peptide_1_1 conditio… sampl…             16.1 TRUE   TRUE          
#>  8 protein_1 peptide_1_1 conditio… sampl…             15.9 TRUE   TRUE          
#>  9 protein_1 peptide_1_2 conditio… sampl…             12.6 TRUE   FALSE         
#> 10 protein_1 peptide_1_2 conditio… sampl…             12.7 TRUE   FALSE         
#> # … with 14 more rows, and 1 more variable: peptide_intensity_missing <dbl>
…
#> "all" was provided as reference condition. All pairwise comparisons are
#> created from the conditions and assigned their missingness. The
#> created comparisons are:
#> condition_1_vs_condition_2

head(data_missing, n = 24)

#> # A tibble: 24 × 8
#>    protein peptide_intensi… sample condition peptide peptide_intensi… comparison
#>    <chr>              <dbl> <chr>  <chr>     <chr>              <dbl> <chr>     
#>  1 protei…             16.8 sampl… conditio… peptid…             16.8 condition…
#>  2 protei…             17.0 sampl… conditio… peptid…             17.0 condition…
#>  3 protei…             17.0 sampl… conditio… peptid…             17.0 condition…
#>  4 protei…             17.0 sampl… conditio… peptid…             17.0 condition…
#>  5 protei…             15.8 sampl… conditio… peptid…             15.8 condition…
#>  6 protei…             15.9 sampl… conditio… peptid…             15.9 condition…
#>  7 protei…             16.1 sampl… conditio… peptid…             16.1 condition…
#>  8 protei…             15.9 sampl… conditio… peptid…             15.9 condition…
#>  9 protei…             12.6 sampl… conditio… peptid…             NA   condition…
#> 10 protei…             12.7 sampl… conditio… peptid…             NA   condition…
#> # … with 14 more rows, and 1 more variable: missingness <chr>
…
head(data_imputed, n = 24)

#> # A tibble: 24 × 10
#>    protein peptide_intensi… sample condition peptide peptide_intensi… comparison
#>    <chr>              <dbl> <chr>  <chr>     <chr>              <dbl> <chr>     
#>  1 protei…             16.8 sampl… conditio… peptid…             16.8 condition…
#>  2 protei…             17.0 sampl… conditio… peptid…             17.0 condition…
#>  3 protei…             17.0 sampl… conditio… peptid…             17.0 condition…
#>  4 protei…             17.0 sampl… conditio… peptid…             17.0 condition…
#>  5 protei…             15.8 sampl… conditio… peptid…             15.8 condition…
#>  6 protei…             15.9 sampl… conditio… peptid…             15.9 condition…
#>  7 protei…             16.1 sampl… conditio… peptid…             16.1 condition…
#>  8 protei…             15.9 sampl… conditio… peptid…             15.9 condition…
#>  9 protei…             12.6 sampl… conditio… peptid…             NA   condition…
#> 10 protei…             12.7 sampl… conditio… peptid…             NA   condition…
#> # … with 14 more rows, and 3 more variables: missingness <chr>,
#> #   imputed_intensity <dbl>, imputed <lgl>
…
