Check charge state distribution — qc_charge_states • protti
…
# Calculate charge percentages
qc_charge_states(
  data = data,
  sample = sample,
  grouping = peptide,
  charge_states = charge,
  intensity = intensity_non_log2,
  method = "intensity",
  plot = FALSE
)

#> # A tibble: 30 × 3
#>    sample   charge charge_per
#>    <fct>    <fct>       <dbl>
#>  1 sample_1 1          7.01  
#>  2 sample_1 2         47.2   
#>  3 sample_1 3         42.6   
#>  4 sample_1 4          3.19  
#>  5 sample_1 5          0.0358
#>  6 sample_2 1          8.64  
#>  7 sample_2 2         48.1   
#>  8 sample_2 3         39.9   
#>  9 sample_2 4          3.33  
#> 10 sample_2 5          0.0581
#> # … with 20 more rows
…
